^C:\PROJECTS\VOXEL\DEV\LIBS\OCULUSRIFT\OCULUSSDK\LIBOVR\LIB\WIN32\VS2013\LIBOVRD.LIB|C:\PROJECTS\VOXEL\DEV\LIBS\OCULUSRIFT\OCULUSSHARP\OCULUSSHARP\DEBUG\.NETFRAMEWORK,VERSION=V4.5.1.ASSEMBLYATTRIBUTES.OBJ|C:\PROJECTS\VOXEL\DEV\LIBS\OCULUSRIFT\OCULUSSHARP\OCULUSSHARP\DEBUG\APP.RES|C:\PROJECTS\VOXEL\DEV\LIBS\OCULUSRIFT\OCULUSSHARP\OCULUSSHARP\DEBUG\ASSEMBLYINFO.OBJ|C:\PROJECTS\VOXEL\DEV\LIBS\OCULUSRIFT\OCULUSSHARP\OCULUSSHARP\DEBUG\OCULUSSHARP.OBJ|C:\PROJECTS\VOXEL\DEV\LIBS\OCULUSRIFT\OCULUSSHARP\OCULUSSHARP\DEBUG\STDAFX.OBJ
C:\PROGRAM FILES (X86)\WINDOWS KITS\8.1\LIB\WINV6.3\UM\X86\WINMM.LIB
C:\PROGRAM FILES (X86)\WINDOWS KITS\8.1\LIB\WINV6.3\UM\X86\SHELL32.LIB
C:\PROGRAM FILES (X86)\WINDOWS KITS\8.1\LIB\WINV6.3\UM\X86\GDI32.LIB
C:\PROJECTS\VOXEL\DEV\LIBS\OCULUSRIFT\OCULUSSHARP\OCULUSSHARP\DEBUG\APP.RES
C:\PROJECTS\VOXEL\DEV\LIBS\OCULUSRIFT\OCULUSSHARP\OCULUSSHARP\DEBUG\ASSEMBLYINFO.OBJ
C:\PROJECTS\VOXEL\DEV\LIBS\OCULUSRIFT\OCULUSSHARP\OCULUSSHARP\DEBUG\OCULUSSHARP.OBJ
C:\PROJECTS\VOXEL\DEV\LIBS\OCULUSRIFT\OCULUSSHARP\OCULUSSHARP\DEBUG\STDAFX.OBJ
C:\PROJECTS\VOXEL\DEV\LIBS\OCULUSRIFT\OCULUSSHARP\OCULUSSHARP\DEBUG\.NETFRAMEWORK,VERSION=V4.5.1.ASSEMBLYATTRIBUTES.OBJ
C:\PROJECTS\VOXEL\DEV\LIBS\OCULUSRIFT\OCULUSSDK\LIBOVR\LIB\WIN32\VS2013\LIBOVRD.LIB
C:\WINDOWS\GLOBALIZATION\SORTING\SORTDEFAULT.NLS
C:\PROGRAM FILES (X86)\MICROSOFT VISUAL STUDIO 12.0\VC\BIN\LINK.EXE
C:\WINDOWS\SYSTEM32\RSAENH.DLL
C:\WINDOWS\SYSTEM32\TZRES.DLL
C:\WINDOWS\MICROSOFT.NET\FRAMEWORK\V2.0.50727\MSCORWKS.DLL
C:\WINDOWS\MICROSOFT.NET\FRAMEWORK\V4.0.30319\CLR.DLL
C:\PROGRAM FILES (X86)\MICROSOFT VISUAL STUDIO 12.0\VC\BIN\LINK.EXE.CONFIG
C:\PROGRAM FILES (X86)\WINDOWS KITS\8.1\LIB\WINV6.3\UM\X86\UUID.LIB
C:\PROGRAM FILES (X86)\MICROSOFT VISUAL STUDIO 12.0\VC\LIB\MSVCRTD.LIB
C:\PROGRAM FILES (X86)\MICROSOFT VISUAL STUDIO 12.0\VC\LIB\OLDNAMES.LIB
C:\PROGRAM FILES (X86)\MICROSOFT VISUAL STUDIO 12.0\VC\LIB\MSVCMRTD.LIB
C:\PROGRAM FILES (X86)\WINDOWS KITS\8.1\LIB\WINV6.3\UM\X86\MSCOREE.LIB
C:\PROGRAM FILES (X86)\WINDOWS KITS\8.1\LIB\WINV6.3\UM\X86\KERNEL32.LIB
C:\PROGRAM FILES (X86)\MICROSOFT VISUAL STUDIO 12.0\VC\LIB\COMSUPPWD.LIB
C:\PROGRAM FILES (X86)\WINDOWS KITS\8.1\LIB\WINV6.3\UM\X86\USER32.LIB
C:\PROGRAM FILES (X86)\WINDOWS KITS\8.1\LIB\WINV6.3\UM\X86\OLE32.LIB
C:\PROGRAM FILES (X86)\WINDOWS KITS\8.1\LIB\WINV6.3\UM\X86\OLEAUT32.LIB
C:\PROGRAM FILES (X86)\WINDOWS KITS\8.1\BIN\X86\RC.EXE
C:\PROGRAM FILES (X86)\MICROSOFT VISUAL STUDIO 12.0\VC\BIN\CVTRES.EXE
C:\PROGRAM FILES (X86)\MICROSOFT VISUAL STUDIO 12.0\VC\BIN\1033\LINKUI.DLL
